ISO-10303-21;
HEADER;
/* Generated by software containing ST-Developer
 * from STEP Tools, Inc. (www.steptools.com) 
 */

FILE_DESCRIPTION(
/* description */ (''),
/* implementation_level */ '2;1');

FILE_NAME(
/* name */ 'C:/Users/rulmo/Desktop/pieza Bellvitge/codo 22.stp',
/* time_stamp */ '2020-03-28T17:02:02+01:00',
/* author */ (''),
/* organization */ (''),
/* preprocessor_version */ 'ST-DEVELOPER v15.2',
/* originating_system */ 'Autodesk Translator Framework v2.0.0.5431',
/* authorisation */ '');

FILE_SCHEMA (('AUTOMOTIVE_DESIGN { 1 0 10303 214 3 1 1 }'));
ENDSEC;

DATA;
#10=SHAPE_REPRESENTATION_RELATIONSHIP('SRR','None',#733,#11);
#11=ADVANCED_BREP_SHAPE_REPRESENTATION($,(#240),#727);
#12=STYLED_ITEM($,(#741),#240);
#13=CYLINDRICAL_SURFACE($,#264,1.1);
#14=CYLINDRICAL_SURFACE($,#266,1.3);
#15=CYLINDRICAL_SURFACE($,#271,1.1);
#16=CYLINDRICAL_SURFACE($,#273,1.375);
#17=FACE_BOUND($,#65,.T.);
#18=FACE_BOUND($,#67,.T.);
#19=FACE_BOUND($,#73,.T.);
#20=FACE_BOUND($,#75,.T.);
#21=FACE_BOUND($,#76,.T.);
#22=FACE_BOUND($,#77,.T.);
#23=FACE_BOUND($,#80,.T.);
#24=FACE_BOUND($,#82,.T.);
#25=FACE_BOUND($,#84,.T.);
#26=TOROIDAL_SURFACE($,#254,2.,1.3);
#27=TOROIDAL_SURFACE($,#255,2.,1.1);
#28=PLANE($,#244);
#29=PLANE($,#246);
#30=PLANE($,#248);
#31=PLANE($,#250);
#32=PLANE($,#252);
#33=PLANE($,#256);
#34=PLANE($,#258);
#35=PLANE($,#260);
#36=PLANE($,#262);
#37=PLANE($,#268);
#38=PLANE($,#269);
#39=PLANE($,#275);
#40=FACE_OUTER_BOUND($,#58,.T.);
#41=FACE_OUTER_BOUND($,#59,.T.);
#42=FACE_OUTER_BOUND($,#60,.T.);
#43=FACE_OUTER_BOUND($,#61,.T.);
#44=FACE_OUTER_BOUND($,#62,.T.);
#45=FACE_OUTER_BOUND($,#63,.T.);
#46=FACE_OUTER_BOUND($,#64,.T.);
#47=FACE_OUTER_BOUND($,#66,.T.);
#48=FACE_OUTER_BOUND($,#68,.T.);
#49=FACE_OUTER_BOUND($,#69,.T.);
#50=FACE_OUTER_BOUND($,#70,.T.);
#51=FACE_OUTER_BOUND($,#71,.T.);
#52=FACE_OUTER_BOUND($,#72,.T.);
#53=FACE_OUTER_BOUND($,#74,.T.);
#54=FACE_OUTER_BOUND($,#78,.T.);
#55=FACE_OUTER_BOUND($,#79,.T.);
#56=FACE_OUTER_BOUND($,#81,.T.);
#57=FACE_OUTER_BOUND($,#83,.T.);
#58=EDGE_LOOP($,(#161,#162,#163,#164,#165));
#59=EDGE_LOOP($,(#166,#167));
#60=EDGE_LOOP($,(#168,#169));
#61=EDGE_LOOP($,(#170,#171));
#62=EDGE_LOOP($,(#172,#173));
#63=EDGE_LOOP($,(#174,#175));
#64=EDGE_LOOP($,(#176,#177,#178,#179));
#65=EDGE_LOOP($,(#180,#181));
#66=EDGE_LOOP($,(#182,#183,#184,#185));
#67=EDGE_LOOP($,(#186,#187,#188));
#68=EDGE_LOOP($,(#189,#190));
#69=EDGE_LOOP($,(#191,#192));
#70=EDGE_LOOP($,(#193,#194));
#71=EDGE_LOOP($,(#195,#196));
#72=EDGE_LOOP($,(#197,#198,#199,#200));
#73=EDGE_LOOP($,(#201));
#74=EDGE_LOOP($,(#202));
#75=EDGE_LOOP($,(#203,#204,#205,#206));
#76=EDGE_LOOP($,(#207));
#77=EDGE_LOOP($,(#208));
#78=EDGE_LOOP($,(#209,#210,#211));
#79=EDGE_LOOP($,(#212,#213));
#80=EDGE_LOOP($,(#214));
#81=EDGE_LOOP($,(#215));
#82=EDGE_LOOP($,(#216));
#83=EDGE_LOOP($,(#217));
#84=EDGE_LOOP($,(#218));
#85=B_SPLINE_CURVE_WITH_KNOTS($,3,(#427,#428,#429,#430,#431,#432,#433,#434,
#435,#436,#437,#438,#439,#440,#441),.UNSPECIFIED.,.F.,.F.,(4,1,1,1,1,1,
1,1,1,1,1,1,4),(2.64880111729626,3.4096937423373,4.17059151045812,4.93148927857895,
5.69238704669977,6.19965222544699,7.21418258294142,8.22871294043585,8.73597811918306,
9.49687588730389,10.2577736554247,10.6382225394851,10.6526379984865),
 .UNSPECIFIED.);
#86=B_SPLINE_CURVE_WITH_KNOTS($,3,(#442,#443,#444,#445,#446,#447,#448,#449,
#450,#451,#452),.UNSPECIFIED.,.F.,.F.,(4,1,1,1,1,3,4),(6.924479500238E-005,
0.366102669854005,1.12700043797483,1.50744932203524,1.88789820609565,2.64879597421648,
2.64880111729626),.UNSPECIFIED.);
#87=B_SPLINE_CURVE_WITH_KNOTS($,3,(#458,#459,#460,#461,#462,#463,#464,#465,
#466,#467,#468,#469,#470,#471,#472,#473,#474,#475,#476,#477,#478,#479,#480,
#481),.UNSPECIFIED.,.F.,.F.,(4,2,2,2,2,2,2,2,2,2,2,4),(3.43764907638513,
3.46238668380865,3.66594767877044,3.8696621616837,4.07337664459696,4.27714862929873,
4.4809206140005,4.68466375605092,4.88840689810134,5.09211350030114,5.29582010250094,
5.4983730879976),.UNSPECIFIED.);
#88=B_SPLINE_CURVE_WITH_KNOTS($,3,(#486,#487,#488,#489,#490,#491,#492,#493,
#494,#495,#496,#497,#498,#499,#500,#501,#502,#503,#504,#505,#506,#507,#508,
#509,#510,#511,#512,#513,#514,#515,#516,#517,#518,#519,#520,#521,#522,#523,
#524),.UNSPECIFIED.,.F.,.F.,(4,2,2,2,2,2,2,2,3,2,2,2,2,2,2,2,2,2,4),(6.00308256805714,
6.02318956717724,6.26416598307257,6.50493666575604,6.74570734843951,6.98637001170746,
7.2270326749754,7.46763903937281,7.70824540377022,7.94885176816763,8.18945813256503,
8.43012079583298,8.67078345910093,8.9115541417844,9.15232482446787,9.39330124036319,
9.63427765625852,9.87545213742724,9.93210458042257),.UNSPECIFIED.);
#89=B_SPLINE_CURVE_WITH_KNOTS($,3,(#529,#530,#531,#532,#533,#534,#535,#536,
#537,#538,#539,#540),.UNSPECIFIED.,.F.,.F.,(4,2,2,2,2,4),(1.87056139502334,
2.03785573422149,2.2420147803852,2.44617382654891,2.65011652964214,2.6743869910652),
 .UNSPECIFIED.);
#90=B_SPLINE_CURVE_WITH_KNOTS($,3,(#545,#546,#547,#548,#549,#550,#551,#552,
#553,#554,#555,#556,#557,#558,#559,#560,#561,#562),.UNSPECIFIED.,.F.,.F.,
(4,2,2,2,2,2,2,2,4),(3.62330214403534,3.66751236194033,3.87145506503356,
4.0753977681268,4.27955681429051,4.48371586045422,4.68776520680859,4.89181455316295,
5.0807652097234),.UNSPECIFIED.);
#91=B_SPLINE_CURVE_WITH_KNOTS($,3,(#567,#568,#569,#570,#571,#572,#573,#574,
#575,#576,#577,#578,#579,#580,#581,#582,#583,#584,#585,#586),
 .UNSPECIFIED.,.F.,.F.,(4,2,2,2,2,2,2,2,2,4),(10.5350867731502,10.5995179150536,
10.8407566298216,11.0819953445896,11.3221817251225,11.5623681056553,11.8025544861882,
12.042740866721,12.2839795814891,12.3134428042418),.UNSPECIFIED.);
#92=B_SPLINE_CURVE_WITH_KNOTS($,3,(#588,#589,#590,#591,#592,#593,#594,#595,
#596,#597,#598),.UNSPECIFIED.,.F.,.F.,(4,3,2,2,4),(1.70516284059427,1.9260322524883,
2.43511879312825,2.94501749629471,3.17740561538451),.UNSPECIFIED.);
#93=B_SPLINE_CURVE_WITH_KNOTS($,3,(#599,#600,#601,#602,#603,#604,#605,#606),
 .UNSPECIFIED.,.F.,.F.,(4,2,2,4),(4.88140403439346,5.05841854071567,5.29986418894447,
5.4843862266537),.UNSPECIFIED.);
#94=B_SPLINE_CURVE_WITH_KNOTS($,3,(#608,#609,#610,#611,#612,#613,#614,#615,
#616,#617,#618,#619,#620,#621,#622,#623,#624,#625,#626,#627,#628,#629,#630,
#631,#632,#633,#634,#635,#636,#637,#638),.UNSPECIFIED.,.F.,.F.,(4,2,2,2,
3,2,2,2,2,2,2,2,2,2,4),(-1.53351527609612,-1.28892315168393,-0.859092111428869,
-0.429498234262879,0.,0.203586622014088,0.407173244028177,0.610813964866296,
0.814454685704415,1.01819420249866,1.22193371929291,1.42584537999999,1.62975704070707,
1.83380638706143,1.87056139422199),.UNSPECIFIED.);
#95=B_SPLINE_CURVE_WITH_KNOTS($,3,(#639,#640,#641,#642,#643,#644,#645,#646,
#647,#648,#649,#650),.UNSPECIFIED.,.F.,.F.,(4,2,2,2,2,4),(2.674386990259,
2.85405923192969,3.05742251423093,3.26078579653217,3.4641490788334,3.62330213878609),
 .UNSPECIFIED.);
#96=B_SPLINE_CURVE_WITH_KNOTS($,3,(#652,#653,#654,#655,#656,#657,#658,#659,
#660,#661,#662,#663,#664,#665,#666,#667,#668,#669,#670,#671,#672,#673,#674,
#675,#676,#677,#678,#679,#680,#681,#682,#683,#684,#685,#686,#687),
 .UNSPECIFIED.,.F.,.F.,(4,2,2,2,2,2,2,2,2,2,2,2,2,2,2,2,2,4),(3.08000230130873,
3.25882568884686,3.46238668380865,3.66594767877045,3.8696621616837,4.07337664459696,
4.27714862929873,4.4809206140005,4.68466375605092,4.88840689810134,5.09211350030114,
5.29582010250094,5.49948096357535,5.70314182464975,5.90677640980965,6.11041099496955,
6.31403118633163,6.51765137769371),.UNSPECIFIED.);
#97=B_SPLINE_CURVE_WITH_KNOTS($,3,(#688,#689,#690,#691,#692,#693,#694,#695,
#696,#697,#698,#699,#700,#701),.UNSPECIFIED.,.F.,.F.,(4,2,2,2,2,2,4),(0.,
0.20362019136208,0.407240382724161,0.61087496788406,0.81450955304396,1.01817041411837,
1.01927829049744),.UNSPECIFIED.);
#98=CIRCLE($,#242,0.399999999999999);
#99=CIRCLE($,#243,1.375);
#100=CIRCLE($,#245,1.1);
#101=CIRCLE($,#247,1.3);
#102=CIRCLE($,#249,1.1);
#103=CIRCLE($,#251,1.1);
#104=CIRCLE($,#253,1.3);
#105=CIRCLE($,#257,1.3);
#106=CIRCLE($,#259,1.1);
#107=CIRCLE($,#261,1.1);
#108=CIRCLE($,#263,1.3);
#109=CIRCLE($,#265,1.1);
#110=CIRCLE($,#267,1.3);
#111=CIRCLE($,#270,1.1);
#112=CIRCLE($,#272,1.1);
#113=CIRCLE($,#274,1.375);
#114=VERTEX_POINT($,#423);
#115=VERTEX_POINT($,#424);
#116=VERTEX_POINT($,#426);
#117=VERTEX_POINT($,#455);
#118=VERTEX_POINT($,#456);
#119=VERTEX_POINT($,#483);
#120=VERTEX_POINT($,#484);
#121=VERTEX_POINT($,#526);
#122=VERTEX_POINT($,#527);
#123=VERTEX_POINT($,#542);
#124=VERTEX_POINT($,#543);
#125=VERTEX_POINT($,#564);
#126=VERTEX_POINT($,#565);
#127=VERTEX_POINT($,#651);
#128=VERTEX_POINT($,#711);
#129=VERTEX_POINT($,#714);
#130=VERTEX_POINT($,#720);
#131=VERTEX_POINT($,#723);
#132=EDGE_CURVE($,#114,#115,#98,.T.);
#133=EDGE_CURVE($,#115,#116,#85,.T.);
#134=EDGE_CURVE($,#116,#115,#86,.T.);
#135=EDGE_CURVE($,#114,#114,#99,.T.);
#136=EDGE_CURVE($,#117,#118,#100,.T.);
#137=EDGE_CURVE($,#117,#118,#87,.T.);
#138=EDGE_CURVE($,#119,#120,#101,.T.);
#139=EDGE_CURVE($,#119,#120,#88,.T.);
#140=EDGE_CURVE($,#121,#122,#102,.T.);
#141=EDGE_CURVE($,#121,#122,#89,.T.);
#142=EDGE_CURVE($,#123,#124,#103,.T.);
#143=EDGE_CURVE($,#123,#124,#90,.T.);
#144=EDGE_CURVE($,#125,#126,#104,.T.);
#145=EDGE_CURVE($,#125,#126,#91,.T.);
#146=EDGE_CURVE($,#119,#126,#92,.T.);
#147=EDGE_CURVE($,#125,#120,#93,.T.);
#148=EDGE_CURVE($,#124,#121,#94,.T.);
#149=EDGE_CURVE($,#122,#123,#95,.T.);
#150=EDGE_CURVE($,#117,#127,#96,.T.);
#151=EDGE_CURVE($,#127,#118,#97,.T.);
#152=EDGE_CURVE($,#120,#125,#105,.T.);
#153=EDGE_CURVE($,#122,#123,#106,.T.);
#154=EDGE_CURVE($,#124,#121,#107,.T.);
#155=EDGE_CURVE($,#126,#119,#108,.T.);
#156=EDGE_CURVE($,#128,#128,#109,.T.);
#157=EDGE_CURVE($,#129,#129,#110,.T.);
#158=EDGE_CURVE($,#118,#117,#111,.T.);
#159=EDGE_CURVE($,#130,#130,#112,.T.);
#160=EDGE_CURVE($,#131,#131,#113,.T.);
#161=ORIENTED_EDGE($,*,*,#132,.T.);
#162=ORIENTED_EDGE($,*,*,#133,.T.);
#163=ORIENTED_EDGE($,*,*,#134,.T.);
#164=ORIENTED_EDGE($,*,*,#132,.F.);
#165=ORIENTED_EDGE($,*,*,#135,.T.);
#166=ORIENTED_EDGE($,*,*,#136,.T.);
#167=ORIENTED_EDGE($,*,*,#137,.F.);
#168=ORIENTED_EDGE($,*,*,#138,.T.);
#169=ORIENTED_EDGE($,*,*,#139,.F.);
#170=ORIENTED_EDGE($,*,*,#140,.F.);
#171=ORIENTED_EDGE($,*,*,#141,.T.);
#172=ORIENTED_EDGE($,*,*,#142,.F.);
#173=ORIENTED_EDGE($,*,*,#143,.T.);
#174=ORIENTED_EDGE($,*,*,#144,.T.);
#175=ORIENTED_EDGE($,*,*,#145,.F.);
#176=ORIENTED_EDGE($,*,*,#146,.F.);
#177=ORIENTED_EDGE($,*,*,#139,.T.);
#178=ORIENTED_EDGE($,*,*,#147,.F.);
#179=ORIENTED_EDGE($,*,*,#145,.T.);
#180=ORIENTED_EDGE($,*,*,#133,.F.);
#181=ORIENTED_EDGE($,*,*,#134,.F.);
#182=ORIENTED_EDGE($,*,*,#148,.F.);
#183=ORIENTED_EDGE($,*,*,#143,.F.);
#184=ORIENTED_EDGE($,*,*,#149,.F.);
#185=ORIENTED_EDGE($,*,*,#141,.F.);
#186=ORIENTED_EDGE($,*,*,#150,.F.);
#187=ORIENTED_EDGE($,*,*,#137,.T.);
#188=ORIENTED_EDGE($,*,*,#151,.F.);
#189=ORIENTED_EDGE($,*,*,#147,.T.);
#190=ORIENTED_EDGE($,*,*,#152,.T.);
#191=ORIENTED_EDGE($,*,*,#149,.T.);
#192=ORIENTED_EDGE($,*,*,#153,.F.);
#193=ORIENTED_EDGE($,*,*,#148,.T.);
#194=ORIENTED_EDGE($,*,*,#154,.F.);
#195=ORIENTED_EDGE($,*,*,#146,.T.);
#196=ORIENTED_EDGE($,*,*,#155,.T.);
#197=ORIENTED_EDGE($,*,*,#153,.T.);
#198=ORIENTED_EDGE($,*,*,#142,.T.);
#199=ORIENTED_EDGE($,*,*,#154,.T.);
#200=ORIENTED_EDGE($,*,*,#140,.T.);
#201=ORIENTED_EDGE($,*,*,#156,.F.);
#202=ORIENTED_EDGE($,*,*,#157,.F.);
#203=ORIENTED_EDGE($,*,*,#138,.F.);
#204=ORIENTED_EDGE($,*,*,#155,.F.);
#205=ORIENTED_EDGE($,*,*,#144,.F.);
#206=ORIENTED_EDGE($,*,*,#152,.F.);
#207=ORIENTED_EDGE($,*,*,#156,.T.);
#208=ORIENTED_EDGE($,*,*,#157,.T.);
#209=ORIENTED_EDGE($,*,*,#150,.T.);
#210=ORIENTED_EDGE($,*,*,#151,.T.);
#211=ORIENTED_EDGE($,*,*,#158,.T.);
#212=ORIENTED_EDGE($,*,*,#158,.F.);
#213=ORIENTED_EDGE($,*,*,#136,.F.);
#214=ORIENTED_EDGE($,*,*,#159,.F.);
#215=ORIENTED_EDGE($,*,*,#135,.F.);
#216=ORIENTED_EDGE($,*,*,#160,.T.);
#217=ORIENTED_EDGE($,*,*,#160,.F.);
#218=ORIENTED_EDGE($,*,*,#159,.T.);
#219=B_SPLINE_SURFACE_WITH_KNOTS($,3,3,((#347,#348,#349,#350,#351,#352,
#353,#354,#355,#356,#357,#358,#359,#360,#361,#362,#363,#364,#365),(#366,
#367,#368,#369,#370,#371,#372,#373,#374,#375,#376,#377,#378,#379,#380,#381,
#382,#383,#384),(#385,#386,#387,#388,#389,#390,#391,#392,#393,#394,#395,
#396,#397,#398,#399,#400,#401,#402,#403),(#404,#405,#406,#407,#408,#409,
#410,#411,#412,#413,#414,#415,#416,#417,#418,#419,#420,#421,#422)),
 .UNSPECIFIED.,.F.,.T.,.F.,(4,4),(4,1,1,1,1,1,1,1,1,1,1,1,1,1,1,1,4),(0.,
1.),(2.64879597421648,3.4096937423373,4.17059151045812,4.93148927857895,
5.69238704669977,6.19965222544699,7.21418258294142,8.22871294043585,8.73597811918306,
9.49687588730389,10.2577736554247,10.6382225394851,11.0186714235455,11.7795691916664,
12.1600180757268,12.5404669597872,13.301364727908),.UNSPECIFIED.);
#220=ADVANCED_FACE($,(#40),#219,.T.);
#221=ADVANCED_FACE($,(#41),#28,.F.);
#222=ADVANCED_FACE($,(#42),#29,.T.);
#223=ADVANCED_FACE($,(#43),#30,.T.);
#224=ADVANCED_FACE($,(#44),#31,.T.);
#225=ADVANCED_FACE($,(#45),#32,.T.);
#226=ADVANCED_FACE($,(#46,#17),#26,.T.);
#227=ADVANCED_FACE($,(#47,#18),#27,.F.);
#228=ADVANCED_FACE($,(#48),#33,.T.);
#229=ADVANCED_FACE($,(#49),#34,.T.);
#230=ADVANCED_FACE($,(#50),#35,.T.);
#231=ADVANCED_FACE($,(#51),#36,.T.);
#232=ADVANCED_FACE($,(#52,#19),#13,.F.);
#233=ADVANCED_FACE($,(#53,#20),#14,.T.);
#234=ADVANCED_FACE($,(#21,#22),#37,.T.);
#235=ADVANCED_FACE($,(#54),#38,.T.);
#236=ADVANCED_FACE($,(#55,#23),#15,.F.);
#237=ADVANCED_FACE($,(#56,#24),#16,.T.);
#238=ADVANCED_FACE($,(#57,#25),#39,.F.);
#239=CLOSED_SHELL($,(#220,#221,#222,#223,#224,#225,#226,#227,#228,#229,
#230,#231,#232,#233,#234,#235,#236,#237,#238));
#240=MANIFOLD_SOLID_BREP('ASM Body',#239);
#241=AXIS2_PLACEMENT_3D('placement',#346,#276,#277);
#242=AXIS2_PLACEMENT_3D($,#425,#278,#279);
#243=AXIS2_PLACEMENT_3D($,#453,#280,#281);
#244=AXIS2_PLACEMENT_3D($,#454,#282,#283);
#245=AXIS2_PLACEMENT_3D($,#457,#284,#285);
#246=AXIS2_PLACEMENT_3D($,#482,#286,#287);
#247=AXIS2_PLACEMENT_3D($,#485,#288,#289);
#248=AXIS2_PLACEMENT_3D($,#525,#290,#291);
#249=AXIS2_PLACEMENT_3D($,#528,#292,#293);
#250=AXIS2_PLACEMENT_3D($,#541,#294,#295);
#251=AXIS2_PLACEMENT_3D($,#544,#296,#297);
#252=AXIS2_PLACEMENT_3D($,#563,#298,#299);
#253=AXIS2_PLACEMENT_3D($,#566,#300,#301);
#254=AXIS2_PLACEMENT_3D($,#587,#302,#303);
#255=AXIS2_PLACEMENT_3D($,#607,#304,#305);
#256=AXIS2_PLACEMENT_3D($,#702,#306,#307);
#257=AXIS2_PLACEMENT_3D($,#703,#308,#309);
#258=AXIS2_PLACEMENT_3D($,#704,#310,#311);
#259=AXIS2_PLACEMENT_3D($,#705,#312,#313);
#260=AXIS2_PLACEMENT_3D($,#706,#314,#315);
#261=AXIS2_PLACEMENT_3D($,#707,#316,#317);
#262=AXIS2_PLACEMENT_3D($,#708,#318,#319);
#263=AXIS2_PLACEMENT_3D($,#709,#320,#321);
#264=AXIS2_PLACEMENT_3D($,#710,#322,#323);
#265=AXIS2_PLACEMENT_3D($,#712,#324,#325);
#266=AXIS2_PLACEMENT_3D($,#713,#326,#327);
#267=AXIS2_PLACEMENT_3D($,#715,#328,#329);
#268=AXIS2_PLACEMENT_3D($,#716,#330,#331);
#269=AXIS2_PLACEMENT_3D($,#717,#332,#333);
#270=AXIS2_PLACEMENT_3D($,#718,#334,#335);
#271=AXIS2_PLACEMENT_3D($,#719,#336,#337);
#272=AXIS2_PLACEMENT_3D($,#721,#338,#339);
#273=AXIS2_PLACEMENT_3D($,#722,#340,#341);
#274=AXIS2_PLACEMENT_3D($,#724,#342,#343);
#275=AXIS2_PLACEMENT_3D($,#725,#344,#345);
#276=DIRECTION('axis',(0.,0.,1.));
#277=DIRECTION('refdir',(1.,0.,0.));
#278=DIRECTION('center_axis',(-0.0058216871841536,0.999914610347506,0.0116995714419686));
#279=DIRECTION('ref_axis',(-0.584585202043112,-0.0128954147576366,0.811229837857584));
#280=DIRECTION('center_axis',(1.,0.,0.));
#281=DIRECTION('ref_axis',(0.,0.,-1.));
#282=DIRECTION('center_axis',(1.,0.,0.));
#283=DIRECTION('ref_axis',(0.,0.,-1.));
#284=DIRECTION('center_axis',(-1.,0.,0.));
#285=DIRECTION('ref_axis',(0.,0.,-1.));
#286=DIRECTION('center_axis',(0.529919264233205,0.848048096156426,-7.61003630324685E-017));
#287=DIRECTION('ref_axis',(0.,0.,1.));
#288=DIRECTION('center_axis',(-0.529919264233205,-0.848048096156426,7.61003630324685E-017));
#289=DIRECTION('ref_axis',(0.719185573394539,-0.449397023149583,-0.529919264233205));
#290=DIRECTION('center_axis',(0.529919264233205,0.848048096156426,-7.61003630324685E-017));
#291=DIRECTION('ref_axis',(0.,0.,1.));
#292=DIRECTION('center_axis',(-0.529919264233205,-0.848048096156426,7.61003630324685E-017));
#293=DIRECTION('ref_axis',(0.719185573394539,-0.449397023149583,-0.529919264233205));
#294=DIRECTION('center_axis',(0.529919264233205,0.848048096156426,-7.61003630324685E-017));
#295=DIRECTION('ref_axis',(0.,0.,1.));
#296=DIRECTION('center_axis',(-0.529919264233205,-0.848048096156426,7.61003630324685E-017));
#297=DIRECTION('ref_axis',(0.719185573394539,-0.449397023149583,-0.529919264233205));
#298=DIRECTION('center_axis',(0.529919264233205,0.848048096156426,-7.61003630324685E-017));
#299=DIRECTION('ref_axis',(0.,0.,1.));
#300=DIRECTION('center_axis',(-0.529919264233205,-0.848048096156426,7.61003630324685E-017));
#301=DIRECTION('ref_axis',(0.719185573394539,-0.449397023149583,-0.529919264233205));
#302=DIRECTION('center_axis',(1.31611514263726E-016,7.49590295412227E-018,
1.));
#303=DIRECTION('ref_axis',(-0.529919264233205,-0.848048096156426,6.72862439166761E-017));
#304=DIRECTION('center_axis',(1.31611514263726E-016,7.49590295412227E-018,
1.));
#305=DIRECTION('ref_axis',(-0.529919264233205,-0.848048096156426,7.16272919113004E-017));
#306=DIRECTION('center_axis',(-0.529919264233205,-0.848048096156426,7.61003630324685E-017));
#307=DIRECTION('ref_axis',(0.719185573394539,-0.449397023149583,-0.529919264233205));
#308=DIRECTION('center_axis',(-0.529919264233205,-0.848048096156426,7.61003630324685E-017));
#309=DIRECTION('ref_axis',(0.719185573394539,-0.449397023149583,-0.529919264233205));
#310=DIRECTION('center_axis',(-0.529919264233205,-0.848048096156426,7.61003630324685E-017));
#311=DIRECTION('ref_axis',(0.719185573394539,-0.449397023149583,-0.529919264233205));
#312=DIRECTION('center_axis',(-0.529919264233205,-0.848048096156426,7.61003630324685E-017));
#313=DIRECTION('ref_axis',(0.719185573394539,-0.449397023149583,-0.529919264233205));
#314=DIRECTION('center_axis',(-0.529919264233205,-0.848048096156426,7.61003630324685E-017));
#315=DIRECTION('ref_axis',(0.719185573394539,-0.449397023149583,-0.529919264233205));
#316=DIRECTION('center_axis',(-0.529919264233205,-0.848048096156426,7.61003630324685E-017));
#317=DIRECTION('ref_axis',(0.719185573394539,-0.449397023149583,-0.529919264233205));
#318=DIRECTION('center_axis',(-0.529919264233205,-0.848048096156426,7.61003630324685E-017));
#319=DIRECTION('ref_axis',(0.719185573394539,-0.449397023149583,-0.529919264233205));
#320=DIRECTION('center_axis',(-0.529919264233205,-0.848048096156426,7.61003630324685E-017));
#321=DIRECTION('ref_axis',(0.719185573394539,-0.449397023149583,-0.529919264233205));
#322=DIRECTION('center_axis',(-0.529919264233205,-0.848048096156426,7.61003630324685E-017));
#323=DIRECTION('ref_axis',(0.719185573394539,-0.449397023149583,-0.529919264233205));
#324=DIRECTION('center_axis',(-0.529919264233205,-0.848048096156426,7.61003630324685E-017));
#325=DIRECTION('ref_axis',(0.719185573394539,-0.449397023149583,-0.529919264233205));
#326=DIRECTION('center_axis',(-0.529919264233205,-0.848048096156426,7.61003630324685E-017));
#327=DIRECTION('ref_axis',(0.719185573394539,-0.449397023149583,-0.529919264233205));
#328=DIRECTION('center_axis',(0.529919264233205,0.848048096156426,-7.61003630324685E-017));
#329=DIRECTION('ref_axis',(0.719185573394539,-0.449397023149583,-0.529919264233205));
#330=DIRECTION('center_axis',(0.529919264233205,0.848048096156426,-7.61003630324685E-017));
#331=DIRECTION('ref_axis',(-0.719185573394539,0.449397023149583,0.529919264233205));
#332=DIRECTION('center_axis',(1.,0.,0.));
#333=DIRECTION('ref_axis',(0.,0.,-1.));
#334=DIRECTION('center_axis',(-1.,0.,0.));
#335=DIRECTION('ref_axis',(0.,0.,-1.));
#336=DIRECTION('center_axis',(1.,0.,0.));
#337=DIRECTION('ref_axis',(0.,0.,-1.));
#338=DIRECTION('center_axis',(1.,0.,0.));
#339=DIRECTION('ref_axis',(0.,0.,-1.));
#340=DIRECTION('center_axis',(1.,0.,0.));
#341=DIRECTION('ref_axis',(0.,0.,-1.));
#342=DIRECTION('center_axis',(1.,0.,0.));
#343=DIRECTION('ref_axis',(0.,0.,-1.));
#344=DIRECTION('center_axis',(1.,0.,0.));
#345=DIRECTION('ref_axis',(0.,0.,-1.));
#346=CARTESIAN_POINT('',(0.,0.,0.));
#347=CARTESIAN_POINT('Ctrl Pts',(-15.1999999999999,13.9709918213179,0.237247276093692));
#348=CARTESIAN_POINT('Ctrl Pts',(-15.1999999999999,13.7647365297152,0.233967857147527));
#349=CARTESIAN_POINT('Ctrl Pts',(-15.2,13.3499906546464,0.322042377234229));
#350=CARTESIAN_POINT('Ctrl Pts',(-15.2,12.846670399937,0.713155620443903));
#351=CARTESIAN_POINT('Ctrl Pts',(-15.2,12.5652375883611,1.28360749238911));
#352=CARTESIAN_POINT('Ctrl Pts',(-15.2,12.5611011141839,1.8491490724738));
#353=CARTESIAN_POINT('Ctrl Pts',(-15.2,12.7873720935543,2.43492077892329));
#354=CARTESIAN_POINT('Ctrl Pts',(-15.2,13.3129382335381,2.92828913240445));
#355=CARTESIAN_POINT('Ctrl Pts',(-15.2,14.0252553990758,3.03336060229229));
#356=CARTESIAN_POINT('Ctrl Pts',(-15.2,14.6227339971863,2.84827322064971));
#357=CARTESIAN_POINT('Ctrl Pts',(-15.2,15.061214927009,2.49714718251288));
#358=CARTESIAN_POINT('Ctrl Pts',(-15.2,15.2871526624165,2.02756607974498));
#359=CARTESIAN_POINT('Ctrl Pts',(-15.2,15.3349933094913,1.62456862372198));
#360=CARTESIAN_POINT('Ctrl Pts',(-15.2,15.2939707042598,1.21821115038005));
#361=CARTESIAN_POINT('Ctrl Pts',(-15.2,15.1191214601607,0.839938671771604));
#362=CARTESIAN_POINT('Ctrl Pts',(-15.2,14.8320418740323,0.543221989152281));
#363=CARTESIAN_POINT('Ctrl Pts',(-15.2,14.4849535814268,0.316420841943375));
#364=CARTESIAN_POINT('Ctrl Pts',(-15.2,14.1772471129205,0.240526695039856));
#365=CARTESIAN_POINT('Ctrl Pts',(-15.1999999999999,13.9709918213179,0.237247276093692));
#366=CARTESIAN_POINT('Ctrl Pts',(-15.1323452713713,13.9708725358015,0.286015014399835));
#367=CARTESIAN_POINT('Ctrl Pts',(-15.1335464087402,13.7717390399054,0.28234638262387));
#368=CARTESIAN_POINT('Ctrl Pts',(-15.1352768566282,13.3711361811325,0.36658779831706));
#369=CARTESIAN_POINT('Ctrl Pts',(-15.1365091711025,12.8844171758261,0.743764877844231));
#370=CARTESIAN_POINT('Ctrl Pts',(-15.1371467556,12.6120896950243,1.29471164612212));
#371=CARTESIAN_POINT('Ctrl Pts',(-15.13718096054,12.6079522641059,1.84121875845061));
#372=CARTESIAN_POINT('Ctrl Pts',(-15.1368256205324,12.8267218414315,2.40721330223951));
#373=CARTESIAN_POINT('Ctrl Pts',(-15.1355571857187,13.3349965515137,2.88355031926199));
#374=CARTESIAN_POINT('Ctrl Pts',(-15.1329342689809,14.0234822849041,2.9837710906631));
#375=CARTESIAN_POINT('Ctrl Pts',(-15.1270545386158,14.5997690210543,2.80285652021545));
#376=CARTESIAN_POINT('Ctrl Pts',(-15.1185933708389,15.0217417241,2.46126688076035));
#377=CARTESIAN_POINT('Ctrl Pts',(-15.0975294705395,15.2337109893158,2.00484059833228));
#378=CARTESIAN_POINT('Ctrl Pts',(-15.086059933364,15.275305267376,1.62382473605854));
#379=CARTESIAN_POINT('Ctrl Pts',(-15.0959895627697,15.2395794404289,1.24027673993503));
#380=CARTESIAN_POINT('Ctrl Pts',(-15.1140384168972,15.0762197285298,0.872913745415253));
#381=CARTESIAN_POINT('Ctrl Pts',(-15.1224633348361,14.8008106281608,0.584642491244034));
#382=CARTESIAN_POINT('Ctrl Pts',(-15.1288385578118,14.4669543753065,0.363870603273587));
#383=CARTESIAN_POINT('Ctrl Pts',(-15.1311441340025,14.1700060316977,0.2896836461758));
#384=CARTESIAN_POINT('Ctrl Pts',(-15.1323452713713,13.9708725358015,0.286015014399835));
#385=CARTESIAN_POINT('Ctrl Pts',(-15.0491486602552,13.9710357233981,0.312827762867597));
#386=CARTESIAN_POINT('Ctrl Pts',(-15.0519099870181,13.7757660776375,0.309466734193347));
#387=CARTESIAN_POINT('Ctrl Pts',(-15.0559269709466,13.383190277731,0.39224970319168));
#388=CARTESIAN_POINT('Ctrl Pts',(-15.0588453899858,12.9065421652518,0.761733312674416));
#389=CARTESIAN_POINT('Ctrl Pts',(-15.0603977561911,12.6397364482579,1.30129123097585));
#390=CARTESIAN_POINT('Ctrl Pts',(-15.0605275154425,12.6356279692026,1.83654445834171));
#391=CARTESIAN_POINT('Ctrl Pts',(-15.0597310214248,12.8498008957914,2.39097105765877));
#392=CARTESIAN_POINT('Ctrl Pts',(-15.0568066676187,13.3477449874451,2.85769686535254));
#393=CARTESIAN_POINT('Ctrl Pts',(-15.050753170023,14.0223270654451,2.95645855840067));
#394=CARTESIAN_POINT('Ctrl Pts',(-15.037290126622,14.5888527064314,2.78012123117031));
#395=CARTESIAN_POINT('Ctrl Pts',(-15.017993032999,15.0054856994693,2.4465065293916));
#396=CARTESIAN_POINT('Ctrl Pts',(-14.9698695948755,15.2261942592601,1.99885819786191));
#397=CARTESIAN_POINT('Ctrl Pts',(-14.9436631773993,15.2759323144902,1.62370311628103));
#398=CARTESIAN_POINT('Ctrl Pts',(-14.9662332491685,15.2329983876124,1.24604436321821));
#399=CARTESIAN_POINT('Ctrl Pts',(-15.0074017857978,15.0612439254293,0.885666453157812));
#400=CARTESIAN_POINT('Ctrl Pts',(-15.0265839550663,14.7874801920894,0.603883809097585));
#401=CARTESIAN_POINT('Ctrl Pts',(-15.0411160911501,14.4576824565108,0.388359104313346));
#402=CARTESIAN_POINT('Ctrl Pts',(-15.0463873334924,14.1663053691587,0.316188791541847));
#403=CARTESIAN_POINT('Ctrl Pts',(-15.0491486602552,13.9710357233981,0.312827762867597));
#404=CARTESIAN_POINT('Ctrl Pts',(-14.965750495132,13.971452346911,0.312729658068349));
#405=CARTESIAN_POINT('Ctrl Pts',(-14.9697479717913,13.7760708517584,0.310456524609155));
#406=CARTESIAN_POINT('Ctrl Pts',(-14.9755422308687,13.384051764803,0.394613741791806));
#407=CARTESIAN_POINT('Ctrl Pts',(-14.9799618430671,12.909343629985,0.764081031486978));
#408=CARTESIAN_POINT('Ctrl Pts',(-14.9822890465901,12.6436545818939,1.30227609549641));
#409=CARTESIAN_POINT('Ctrl Pts',(-14.9825523088869,12.6396101610524,1.83588548522872));
#410=CARTESIAN_POINT('Ctrl Pts',(-14.981374348248,12.852811467433,2.38886070382561));
#411=CARTESIAN_POINT('Ctrl Pts',(-14.9771896980592,13.3489623761172,2.85507673692806));
#412=CARTESIAN_POINT('Ctrl Pts',(-14.968197234033,14.021934597012,2.95638665776631));
#413=CARTESIAN_POINT('Ctrl Pts',(-14.949278742628,14.5921168812675,2.78475810377369));
#414=CARTESIAN_POINT('Ctrl Pts',(-14.9217246815011,15.0164667491014,2.45672147801189));
#415=CARTESIAN_POINT('Ctrl Pts',(-14.8601540960868,15.2675301197795,2.01193699780187));
#416=CARTESIAN_POINT('Ctrl Pts',(-14.8306861170653,15.3366123952162,1.62426290447609));
#417=CARTESIAN_POINT('Ctrl Pts',(-14.8558508966458,15.2768418215287,1.23325120121524));
#418=CARTESIAN_POINT('Ctrl Pts',(-14.9075778953942,15.0782855628815,0.874627972690877));
#419=CARTESIAN_POINT('Ctrl Pts',(-14.934069095988,14.7950466041713,0.596547389500534));
#420=CARTESIAN_POINT('Ctrl Pts',(-14.9541062828027,14.4589640123048,0.384940104792111));
#421=CARTESIAN_POINT('Ctrl Pts',(-14.9617530184726,14.1668338420636,0.315002791527542));
#422=CARTESIAN_POINT('Ctrl Pts',(-14.965750495132,13.971452346911,0.312729658068349));
#423=CARTESIAN_POINT('',(-15.2,13.9709669857885,0.237272664726015));
#424=CARTESIAN_POINT('',(-14.965733572934,13.9714477633971,0.312753147526348));
#425=CARTESIAN_POINT('Origin',(-14.9661659191828,13.9761251516916,-0.0872192704170183));
#426=CARTESIAN_POINT('',(-14.8377915155803,15.3204481626673,1.61277948420539));
#427=CARTESIAN_POINT('Ctrl Pts',(-14.9657505761914,13.9714483850281,0.312729611980561));
#428=CARTESIAN_POINT('Ctrl Pts',(-14.969748010956,13.7760682020138,0.310457093448636));
#429=CARTESIAN_POINT('Ctrl Pts',(-14.9755422408264,13.3840506952498,0.394614574229412));
#430=CARTESIAN_POINT('Ctrl Pts',(-14.9799618430671,12.909343629985,0.764081031486978));
#431=CARTESIAN_POINT('Ctrl Pts',(-14.9822890465901,12.6436545818939,1.30227609549641));
#432=CARTESIAN_POINT('Ctrl Pts',(-14.9825523088869,12.6396101610524,1.83588548522872));
#433=CARTESIAN_POINT('Ctrl Pts',(-14.981374348248,12.852811467433,2.38886070382561));
#434=CARTESIAN_POINT('Ctrl Pts',(-14.9771896980592,13.3489623761172,2.85507673692806));
#435=CARTESIAN_POINT('Ctrl Pts',(-14.968197234033,14.021934597012,2.95638665776631));
#436=CARTESIAN_POINT('Ctrl Pts',(-14.949278742628,14.5921168812675,2.78475810377369));
#437=CARTESIAN_POINT('Ctrl Pts',(-14.9217246815011,15.0164667491014,2.45672147801189));
#438=CARTESIAN_POINT('Ctrl Pts',(-14.8601540960868,15.2675301197795,2.01193699780187));
#439=CARTESIAN_POINT('Ctrl Pts',(-14.8377739715332,15.3199962195955,1.71750912107174));
#440=CARTESIAN_POINT('Ctrl Pts',(-14.8374842536702,15.3205708714175,1.6164688747258));
#441=CARTESIAN_POINT('Ctrl Pts',(-14.8374832302922,15.3205689731934,1.61277973152913));
#442=CARTESIAN_POINT('Ctrl Pts',(-14.8374832302922,15.3205689731934,1.61277973152913));
#443=CARTESIAN_POINT('Ctrl Pts',(-14.8374572449564,15.3205207740016,1.51910600808566));
#444=CARTESIAN_POINT('Ctrl Pts',(-14.8563408891658,15.2749609646476,1.22985408358371));
#445=CARTESIAN_POINT('Ctrl Pts',(-14.9075778953942,15.0782855628815,0.874627972690877));
#446=CARTESIAN_POINT('Ctrl Pts',(-14.934069095988,14.7950466041713,0.596547389500534));
#447=CARTESIAN_POINT('Ctrl Pts',(-14.9541062828027,14.4589640123048,0.384940104792111));
#448=CARTESIAN_POINT('Ctrl Pts',(-14.9617530184726,14.1668338420636,0.315002791527542));
#449=CARTESIAN_POINT('Ctrl Pts',(-14.965750495132,13.971452346911,0.312729658068349));
#450=CARTESIAN_POINT('Ctrl Pts',(-14.9657505221518,13.9714510262834,0.312729642703727));
#451=CARTESIAN_POINT('Ctrl Pts',(-14.9657505491716,13.9714497056557,0.312729627341131));
#452=CARTESIAN_POINT('Ctrl Pts',(-14.9657505761914,13.9714483850281,0.312729611980561));
#453=CARTESIAN_POINT('Origin',(-15.2,13.9491125683742,1.61209897537019));
#454=CARTESIAN_POINT('Origin',(-15.2,14.8638209993329,1.60486356720344));
#455=CARTESIAN_POINT('',(-15.2,15.033023641781,1.42465088936739));
#456=CARTESIAN_POINT('',(-15.2,13.3381107874763,0.697398574287663));
#457=CARTESIAN_POINT('Origin',(-15.2,13.9491125683742,1.61209897537019));
#458=CARTESIAN_POINT('Ctrl Pts',(-15.2,15.033023641781,1.42465088936739));
#459=CARTESIAN_POINT('Ctrl Pts',(-15.2,15.0314862947921,1.41580279443722));
#460=CARTESIAN_POINT('Ctrl Pts',(-15.2,15.0298385377625,1.40696311706403));
#461=CARTESIAN_POINT('Ctrl Pts',(-15.2,15.0136321310906,1.3255839598206));
#462=CARTESIAN_POINT('Ctrl Pts',(-15.2,14.9914358676525,1.2545648741358));
#463=CARTESIAN_POINT('Ctrl Pts',(-15.2,14.939443584972,1.12915685660308));
#464=CARTESIAN_POINT('Ctrl Pts',(-15.2,14.9048485818184,1.06321873894396));
#465=CARTESIAN_POINT('Ctrl Pts',(-15.2,14.8225300694529,0.940120757136941));
#466=CARTESIAN_POINT('Ctrl Pts',(-15.2,14.7748069928104,0.882960603720317));
#467=CARTESIAN_POINT('Ctrl Pts',(-15.2,14.6787326425181,0.786943999697525));
#468=CARTESIAN_POINT('Ctrl Pts',(-15.2,14.6215265508333,0.739243528326708));
#469=CARTESIAN_POINT('Ctrl Pts',(-15.2,14.498344083172,0.656974374849611));
#470=CARTESIAN_POINT('Ctrl Pts',(-15.2,14.4323676759894,0.622405739468566));
#471=CARTESIAN_POINT('Ctrl Pts',(-15.2,14.3068625961485,0.570439026897421));
#472=CARTESIAN_POINT('Ctrl Pts',(-15.2,14.2357709673783,0.548251155004176));
#473=CARTESIAN_POINT('Ctrl Pts',(-15.2,14.090507971755,0.519363313418153));
#474=CARTESIAN_POINT('Ctrl Pts',(-15.2,14.0163365726625,0.512663505842292));
#475=CARTESIAN_POINT('Ctrl Pts',(-15.2,13.8805199912457,0.512663505842292));
#476=CARTESIAN_POINT('Ctrl Pts',(-15.2,13.8063616423239,0.519360887200017));
#477=CARTESIAN_POINT('Ctrl Pts',(-15.2,13.6611254792561,0.548244382682192));
#478=CARTESIAN_POINT('Ctrl Pts',(-15.2,13.5900476901138,0.570430622533172));
#479=CARTESIAN_POINT('Ctrl Pts',(-15.2,13.4649340038925,0.622248618416588));
#480=CARTESIAN_POINT('Ctrl Pts',(-15.2,13.3993711608054,0.656567696469982));
#481=CARTESIAN_POINT('Ctrl Pts',(-15.2,13.3381107874761,0.697398574287294));
#482=CARTESIAN_POINT('Origin',(-13.908150990377,15.2906745454105,2.31266350584229));
#483=CARTESIAN_POINT('',(-13.2043367620271,14.850882604677,0.333562241981702));
#484=CARTESIAN_POINT('',(-13.6680400901034,15.1406366027702,2.87419741637747));
#485=CARTESIAN_POINT('Origin',(-13.4035619185548,14.9753722991205,1.61215977560986));
#486=CARTESIAN_POINT('Ctrl Pts',(-13.2043367620262,14.8508826046764,0.333562241975598));
#487=CARTESIAN_POINT('Ctrl Pts',(-13.1982418008932,14.8470740502633,0.334865419209513));
#488=CARTESIAN_POINT('Ctrl Pts',(-13.192152764691,14.8432691981579,0.336229811327934));
#489=CARTESIAN_POINT('Ctrl Pts',(-13.1132212917024,14.7939473397863,0.354729745907241));
#490=CARTESIAN_POINT('Ctrl Pts',(-13.0419131377965,14.7493890598692,0.380964816439462));
#491=CARTESIAN_POINT('Ctrl Pts',(-12.9160907346549,14.6707664963625,0.442396988038942));
#492=CARTESIAN_POINT('Ctrl Pts',(-12.8499799945948,14.6294559210669,0.483241244273076));
#493=CARTESIAN_POINT('Ctrl Pts',(-12.7265515940336,14.552329296401,0.580452401736443));
#494=CARTESIAN_POINT('Ctrl Pts',(-12.6692340836718,14.5165133408482,0.636819568030373));
#495=CARTESIAN_POINT('Ctrl Pts',(-12.5729879702949,14.4563720943585,0.750278083096204));
#496=CARTESIAN_POINT('Ctrl Pts',(-12.5251881999067,14.4265034828147,0.817816952708873));
#497=CARTESIAN_POINT('Ctrl Pts',(-12.4427467718546,14.3749883610972,0.963264596628743));
#498=CARTESIAN_POINT('Ctrl Pts',(-12.4081052260904,14.3533419208465,1.04117345912761));
#499=CARTESIAN_POINT('Ctrl Pts',(-12.3560323689625,14.3208031883608,1.18938003903057));
#500=CARTESIAN_POINT('Ctrl Pts',(-12.3338008910138,14.3069114191431,1.27332994512198));
#501=CARTESIAN_POINT('Ctrl Pts',(-12.3048570986298,14.2888253303543,1.44487061310791));
#502=CARTESIAN_POINT('Ctrl Pts',(-12.2981448241504,14.2846310357505,1.53246138437649));
#503=CARTESIAN_POINT('Ctrl Pts',(-12.2981448241504,14.2846310357505,1.61266350584229));
#504=CARTESIAN_POINT('Ctrl Pts',(-12.2981448241504,14.2846310357505,1.69286562730809));
#505=CARTESIAN_POINT('Ctrl Pts',(-12.3048570986298,14.2888253303543,1.78045639857668));
#506=CARTESIAN_POINT('Ctrl Pts',(-12.3338008910138,14.3069114191431,1.9519970665626));
#507=CARTESIAN_POINT('Ctrl Pts',(-12.3560323689625,14.3208031883608,2.03594697265402));
#508=CARTESIAN_POINT('Ctrl Pts',(-12.4081052260904,14.3533419208465,2.18415355255697));
#509=CARTESIAN_POINT('Ctrl Pts',(-12.4427467718546,14.3749883610972,2.26206241505584));
#510=CARTESIAN_POINT('Ctrl Pts',(-12.5251881999067,14.4265034828147,2.40751005897571));
#511=CARTESIAN_POINT('Ctrl Pts',(-12.5729879702949,14.4563720943585,2.47504892858838));
#512=CARTESIAN_POINT('Ctrl Pts',(-12.6692340836718,14.5165133408482,2.58850744365421));
#513=CARTESIAN_POINT('Ctrl Pts',(-12.7265515940336,14.552329296401,2.64487460994814));
#514=CARTESIAN_POINT('Ctrl Pts',(-12.8499799945948,14.6294559210669,2.74208576741151));
#515=CARTESIAN_POINT('Ctrl Pts',(-12.9160907346549,14.6707664963625,2.78293002364564));
#516=CARTESIAN_POINT('Ctrl Pts',(-13.0419131377965,14.7493890598692,2.84436219524512));
#517=CARTESIAN_POINT('Ctrl Pts',(-13.1132212917024,14.7939473397863,2.87059726577734));
#518=CARTESIAN_POINT('Ctrl Pts',(-13.2589266285275,14.8849941391779,2.90474763820874));
#519=CARTESIAN_POINT('Ctrl Pts',(-13.3333237160847,14.9314825990637,2.91266350584229));
#520=CARTESIAN_POINT('Ctrl Pts',(-13.4696194328565,15.0166496152709,2.91266350584229));
#521=CARTESIAN_POINT('Ctrl Pts',(-13.5440765100392,15.0631755608351,2.90473445129837));
#522=CARTESIAN_POINT('Ctrl Pts',(-13.634118534211,15.119440062124,2.88363330220049));
#523=CARTESIAN_POINT('Ctrl Pts',(-13.6511665239224,15.1300928284063,2.87913951469627));
#524=CARTESIAN_POINT('Ctrl Pts',(-13.6680400901035,15.1406366027703,2.87419741637777));
#525=CARTESIAN_POINT('Origin',(-13.908150990377,15.2906745454105,2.31266350584229));
#526=CARTESIAN_POINT('',(-13.6169915062919,15.1087379072881,2.68298255536218));
#527=CARTESIAN_POINT('',(-14.1914279939937,15.4676856630713,2.20113736333969));
#528=CARTESIAN_POINT('Origin',(-13.4035619185548,14.9753722991205,1.61215977560986));
#529=CARTESIAN_POINT('Ctrl Pts',(-13.6169915062919,15.1087379072881,2.68298255536218));
#530=CARTESIAN_POINT('Ctrl Pts',(-13.6670430229824,15.1400135660845,2.66901015952081));
#531=CARTESIAN_POINT('Ctrl Pts',(-13.7154863142346,15.1702842940936,2.65015372569844));
#532=CARTESIAN_POINT('Ctrl Pts',(-13.812516584123,15.2309155359544,2.60282692964851));
#533=CARTESIAN_POINT('Ctrl Pts',(-13.8685879491864,15.2659528135022,2.56822290955136));
#534=CARTESIAN_POINT('Ctrl Pts',(-13.9732952481888,15.33138119557,2.48586996798353));
#535=CARTESIAN_POINT('Ctrl Pts',(-14.0219312845646,15.3617723640996,2.43812122761079));
#536=CARTESIAN_POINT('Ctrl Pts',(-14.1035978311038,15.4128032861083,2.34203976950574));
#537=CARTESIAN_POINT('Ctrl Pts',(-14.1441635194796,15.4381515415134,2.28486240428508));
#538=CARTESIAN_POINT('Ctrl Pts',(-14.1833273338492,15.4626238088168,2.21595957056041));
#539=CARTESIAN_POINT('Ctrl Pts',(-14.187417792895,15.4651798113097,2.20857263619081));
#540=CARTESIAN_POINT('Ctrl Pts',(-14.1914279939937,15.4676856630713,2.20113736333969));
#541=CARTESIAN_POINT('Origin',(-13.908150990377,15.2906745454105,2.31266350584229));
#542=CARTESIAN_POINT('',(-14.279646296901,15.5228105768355,1.23428745048008));
#543=CARTESIAN_POINT('',(-13.2327868575512,14.8686601974289,0.530749397493527));
#544=CARTESIAN_POINT('Origin',(-13.4035619185548,14.9753722991205,1.61215977560986));
#545=CARTESIAN_POINT('Ctrl Pts',(-14.2796462968969,15.522810576833,1.23428745048184));
#546=CARTESIAN_POINT('Ctrl Pts',(-14.275173500019,15.5200156631466,1.21996725771465));
#547=CARTESIAN_POINT('Ctrl Pts',(-14.2705136755731,15.5171038816652,1.2059715981633));
#548=CARTESIAN_POINT('Ctrl Pts',(-14.2435914285556,15.5002809946194,1.12958841212614));
#549=CARTESIAN_POINT('Ctrl Pts',(-14.2141610078621,15.4818908267142,1.06361464732272));
#550=CARTESIAN_POINT('Ctrl Pts',(-14.1441635194796,15.4381515415134,0.940464607399506));
#551=CARTESIAN_POINT('Ctrl Pts',(-14.1035978311038,15.4128032861083,0.88328724217885));
#552=CARTESIAN_POINT('Ctrl Pts',(-14.0219312845646,15.3617723640996,0.7872057840738));
#553=CARTESIAN_POINT('Ctrl Pts',(-13.9732952481888,15.33138119557,0.739457043701053));
#554=CARTESIAN_POINT('Ctrl Pts',(-13.8685879491864,15.2659528135022,0.657104102133223));
#555=CARTESIAN_POINT('Ctrl Pts',(-13.812516584123,15.2309155359544,0.622500082036073));
#556=CARTESIAN_POINT('Ctrl Pts',(-13.7058852487856,15.1642848825489,0.570490338418438));
#557=CARTESIAN_POINT('Ctrl Pts',(-13.6455006533982,15.1265523995639,0.548284914695426));
#558=CARTESIAN_POINT('Ctrl Pts',(-13.5221204803254,15.0494559107774,0.519371192591219));
#559=CARTESIAN_POINT('Ctrl Pts',(-13.4591247995569,15.0100918405624,0.512663505842292));
#560=CARTESIAN_POINT('Ctrl Pts',(-13.3480304981364,14.940672416433,0.512663505842292));
#561=CARTESIAN_POINT('Ctrl Pts',(-13.2900487198691,14.9044413802246,0.518364531243914));
#562=CARTESIAN_POINT('Ctrl Pts',(-13.2327868575508,14.8686601974286,0.530749397490865));
#563=CARTESIAN_POINT('Origin',(-13.908150990377,15.2906745454105,2.31266350584229));
#564=CARTESIAN_POINT('',(-14.1428307149297,15.437318712798,2.5765700397594));
#565=CARTESIAN_POINT('',(-14.3056450858457,15.5390564232338,0.864827073586801));
#566=CARTESIAN_POINT('Origin',(-13.4035619185548,14.9753722991205,1.61215977560986));
#567=CARTESIAN_POINT('Ctrl Pts',(-14.1428307149297,15.437318712798,2.5765700397594));
#568=CARTESIAN_POINT('Ctrl Pts',(-14.1569330703615,15.4461308424971,2.56158074168451));
#569=CARTESIAN_POINT('Ctrl Pts',(-14.1704671202032,15.4545878554504,2.54641832731443));
#570=CARTESIAN_POINT('Ctrl Pts',(-14.2316548423312,15.4928221877214,2.47447556631137));
#571=CARTESIAN_POINT('Ctrl Pts',(-14.2796635544793,15.5228213605673,2.40686527664567));
#572=CARTESIAN_POINT('Ctrl Pts',(-14.3625308687837,15.5746026055512,2.26124569082736));
#573=CARTESIAN_POINT('Ctrl Pts',(-14.3973877459158,15.5963835997743,2.18323502973201));
#574=CARTESIAN_POINT('Ctrl Pts',(-14.4496983526863,15.629070894725,2.03508855833053));
#575=CARTESIAN_POINT('Ctrl Pts',(-14.4720244302953,15.6430217763712,1.95133271944449));
#576=CARTESIAN_POINT('Ctrl Pts',(-14.5011148541661,15.6611994906821,1.7801519455458));
#577=CARTESIAN_POINT('Ctrl Pts',(-14.507873369074,15.6654226795124,1.69272563268658));
#578=CARTESIAN_POINT('Ctrl Pts',(-14.507873369074,15.6654226795124,1.53260137899801));
#579=CARTESIAN_POINT('Ctrl Pts',(-14.5011148541661,15.6611994906821,1.44517506613879));
#580=CARTESIAN_POINT('Ctrl Pts',(-14.4720244302953,15.6430217763712,1.2739942922401));
#581=CARTESIAN_POINT('Ctrl Pts',(-14.4496983526863,15.629070894725,1.19023845335405));
#582=CARTESIAN_POINT('Ctrl Pts',(-14.3973877459158,15.5963835997743,1.04209198195257));
#583=CARTESIAN_POINT('Ctrl Pts',(-14.3625308687837,15.5746026055512,0.964081320857222));
#584=CARTESIAN_POINT('Ctrl Pts',(-14.3160367922403,15.5455498820739,0.882379045043217));
#585=CARTESIAN_POINT('Ctrl Pts',(-14.3108833662688,15.542329664127,0.873559877840278));
#586=CARTESIAN_POINT('Ctrl Pts',(-14.3056450858457,15.5390564232338,0.8648270735868));
#587=CARTESIAN_POINT('Origin',(-15.1484102514193,15.9477567057214,1.61266350584229));
#588=CARTESIAN_POINT('Ctrl Pts',(-13.2043367620262,14.8508826046764,0.333562241975595));
#589=CARTESIAN_POINT('Ctrl Pts',(-13.2712880993474,14.8927184434378,0.319247227216174));
#590=CARTESIAN_POINT('Ctrl Pts',(-13.339007618239,14.9350342953192,0.312663505842291));
#591=CARTESIAN_POINT('Ctrl Pts',(-13.4014435796576,14.9740486140667,0.312663505842291));
#592=CARTESIAN_POINT('Ctrl Pts',(-13.5453535368471,15.063973535749,0.312663505842292));
#593=CARTESIAN_POINT('Ctrl Pts',(-13.6878808777668,15.1530345028562,0.345806525810078));
#594=CARTESIAN_POINT('Ctrl Pts',(-13.9544115294837,15.3195813384585,0.474622931041651));
#595=CARTESIAN_POINT('Ctrl Pts',(-14.075865600373,15.3954742650619,0.569179137780383));
#596=CARTESIAN_POINT('Ctrl Pts',(-14.2253554961274,15.4888859193389,0.742811262210933));
#597=CARTESIAN_POINT('Ctrl Pts',(-14.2678734420373,15.5154540806468,0.801857483365232));
#598=CARTESIAN_POINT('Ctrl Pts',(-14.3056450858456,15.5390564232338,0.864827073586683));
#599=CARTESIAN_POINT('Ctrl Pts',(-14.1428307149297,15.437318712798,2.5765700397594));
#600=CARTESIAN_POINT('Ctrl Pts',(-14.1040866943986,15.4131087617984,2.61775079677325));
#601=CARTESIAN_POINT('Ctrl Pts',(-14.0609807467354,15.3861731762187,2.65753035579525));
#602=CARTESIAN_POINT('Ctrl Pts',(-13.9536628900852,15.3191135366854,2.7419146323956));
#603=CARTESIAN_POINT('Ctrl Pts',(-13.8873490053232,15.2776760224916,2.78283396151246));
#604=CARTESIAN_POINT('Ctrl Pts',(-13.7760757605594,15.2081447821511,2.83709824689366));
#605=CARTESIAN_POINT('Ctrl Pts',(-13.7229987935644,15.1749786121837,2.85810056328531));
#606=CARTESIAN_POINT('Ctrl Pts',(-13.6680400901035,15.1406366027703,2.87419741637776));
#607=CARTESIAN_POINT('Origin',(-15.1484102514193,15.9477567057214,1.61266350584229));
#608=CARTESIAN_POINT('Ctrl Pts',(-13.2327868575508,14.8686601974286,0.530749397490857));
#609=CARTESIAN_POINT('Ctrl Pts',(-13.1650930296787,14.8263603990779,0.545390538557482));
#610=CARTESIAN_POINT('Ctrl Pts',(-13.0988202027343,14.7849485406549,0.568838985749908));
#611=CARTESIAN_POINT('Ctrl Pts',(-12.9234236755993,14.6753486264169,0.656943632273834));
#612=CARTESIAN_POINT('Ctrl Pts',(-12.8220015982864,14.6119730786981,0.738285426636994));
#613=CARTESIAN_POINT('Ctrl Pts',(-12.651355090843,14.5053413061863,0.942190660611335));
#614=CARTESIAN_POINT('Ctrl Pts',(-12.5837483177941,14.4630959057267,1.06277806804264));
#615=CARTESIAN_POINT('Ctrl Pts',(-12.4915524672352,14.4054855443392,1.32770321439405));
#616=CARTESIAN_POINT('Ctrl Pts',(-12.4678374024386,14.3906667271693,1.46949742775467));
#617=CARTESIAN_POINT('Ctrl Pts',(-12.4678374024386,14.3906667271693,1.61266350584229));
#618=CARTESIAN_POINT('Ctrl Pts',(-12.4678374024386,14.3906667271693,1.68052571318032));
#619=CARTESIAN_POINT('Ctrl Pts',(-12.473517184502,14.3942158489062,1.75463970100441));
#620=CARTESIAN_POINT('Ctrl Pts',(-12.4980086785167,14.4095198328985,1.89978675969352));
#621=CARTESIAN_POINT('Ctrl Pts',(-12.5168203491851,14.4212746693574,1.97081984024435));
#622=CARTESIAN_POINT('Ctrl Pts',(-12.5608834474461,14.4488083490109,2.09622459271227));
#623=CARTESIAN_POINT('Ctrl Pts',(-12.5901969981379,14.4671254884338,2.1621478055974));
#624=CARTESIAN_POINT('Ctrl Pts',(-12.6599583449786,14.5107172160225,2.28521899329664));
#625=CARTESIAN_POINT('Ctrl Pts',(-12.7004060286785,14.5359917339223,2.34236705673927));
#626=CARTESIAN_POINT('Ctrl Pts',(-12.7818494730614,14.586883246231,2.43837158909252));
#627=CARTESIAN_POINT('Ctrl Pts',(-12.8303523074672,14.617191180932,2.48606803117078));
#628=CARTESIAN_POINT('Ctrl Pts',(-12.9347985653088,14.6824564463788,2.56832535123743));
#629=CARTESIAN_POINT('Ctrl Pts',(-12.9907418470787,14.7174136886021,2.60288647934209));
#630=CARTESIAN_POINT('Ctrl Pts',(-13.0972125140141,14.7839439452473,2.65486829327284));
#631=CARTESIAN_POINT('Ctrl Pts',(-13.1575528801316,14.8216487907171,2.67706758708567));
#632=CARTESIAN_POINT('Ctrl Pts',(-13.2808473035718,14.8986916971862,2.70596495670325));
#633=CARTESIAN_POINT('Ctrl Pts',(-13.3438012811087,14.9380297083298,2.71266350584229));
#634=CARTESIAN_POINT('Ctrl Pts',(-13.4591247995569,15.0100918405624,2.71266350584229));
#635=CARTESIAN_POINT('Ctrl Pts',(-13.5221204803254,15.0494559107774,2.70595581909336));
#636=CARTESIAN_POINT('Ctrl Pts',(-13.5949226807347,15.0949477745647,2.68889487211311));
#637=CARTESIAN_POINT('Ctrl Pts',(-13.6059950561839,15.1018665626357,2.68605232754731));
#638=CARTESIAN_POINT('Ctrl Pts',(-13.6169915062919,15.1087379072881,2.68298255536218));
#639=CARTESIAN_POINT('Ctrl Pts',(-14.1914279939937,15.4676856630713,2.20113736333969));
#640=CARTESIAN_POINT('Ctrl Pts',(-14.2211151848713,15.486236278795,2.14609464629744));
#641=CARTESIAN_POINT('Ctrl Pts',(-14.2462245442772,15.5019263479339,2.08826798360684));
#642=CARTESIAN_POINT('Ctrl Pts',(-14.2877802791498,15.5278932530518,1.97036699913043));
#643=CARTESIAN_POINT('Ctrl Pts',(-14.3066385095046,15.5396771832318,1.89943611634751));
#644=CARTESIAN_POINT('Ctrl Pts',(-14.3312000043464,15.5550249085955,1.75447851163253));
#645=CARTESIAN_POINT('Ctrl Pts',(-14.3369010485179,15.5585873163722,1.68045126660937));
#646=CARTESIAN_POINT('Ctrl Pts',(-14.3369010485179,15.5585873163722,1.54487574507521));
#647=CARTESIAN_POINT('Ctrl Pts',(-14.3312000043464,15.5550249085955,1.47084850005205));
#648=CARTESIAN_POINT('Ctrl Pts',(-14.3093082863096,15.5413454449337,1.34164744652724));
#649=CARTESIAN_POINT('Ctrl Pts',(-14.2957479888936,15.5328720306756,1.28583893818942));
#650=CARTESIAN_POINT('Ctrl Pts',(-14.2796462968969,15.522810576833,1.23428745048185));
#651=CARTESIAN_POINT('',(-15.2,12.8481860099892,1.61266350584229));
#652=CARTESIAN_POINT('Ctrl Pts',(-15.2,15.033023641781,1.42465088936739));
#653=CARTESIAN_POINT('Ctrl Pts',(-15.2,15.0441368263212,1.4886120591597));
#654=CARTESIAN_POINT('Ctrl Pts',(-15.2,15.0492365346393,1.55305570999625));
#655=CARTESIAN_POINT('Ctrl Pts',(-15.2,15.0492365346393,1.68051717082956));
#656=CARTESIAN_POINT('Ctrl Pts',(-15.2,15.0425328096967,1.75462063723207));
#657=CARTESIAN_POINT('Ctrl Pts',(-15.2,15.0136321310906,1.89974305186399));
#658=CARTESIAN_POINT('Ctrl Pts',(-15.2,14.9914358676525,1.97076213754879));
#659=CARTESIAN_POINT('Ctrl Pts',(-15.2,14.939443584972,2.0961701550815));
#660=CARTESIAN_POINT('Ctrl Pts',(-15.2,14.9048485818184,2.16210827274062));
#661=CARTESIAN_POINT('Ctrl Pts',(-15.2,14.8225300694529,2.28520625454764));
#662=CARTESIAN_POINT('Ctrl Pts',(-15.2,14.7748069928104,2.34236640796427));
#663=CARTESIAN_POINT('Ctrl Pts',(-15.2,14.6787326425181,2.43838301198706));
#664=CARTESIAN_POINT('Ctrl Pts',(-15.2,14.6215265508333,2.48608348335788));
#665=CARTESIAN_POINT('Ctrl Pts',(-15.2,14.498344083172,2.56835263683497));
#666=CARTESIAN_POINT('Ctrl Pts',(-15.2,14.4323676759894,2.60292127221602));
#667=CARTESIAN_POINT('Ctrl Pts',(-15.2,14.3068625961485,2.65488798478716));
#668=CARTESIAN_POINT('Ctrl Pts',(-15.2,14.2357709673783,2.67707585668041));
#669=CARTESIAN_POINT('Ctrl Pts',(-15.2,14.090507971755,2.70596369826643));
#670=CARTESIAN_POINT('Ctrl Pts',(-15.2,14.0163365726625,2.71266350584229));
#671=CARTESIAN_POINT('Ctrl Pts',(-15.2,13.8805199912457,2.71266350584229));
#672=CARTESIAN_POINT('Ctrl Pts',(-15.2,13.8063616423239,2.70596612448457));
#673=CARTESIAN_POINT('Ctrl Pts',(-15.2,13.6611254792561,2.67708262900239));
#674=CARTESIAN_POINT('Ctrl Pts',(-15.2,13.5900476901138,2.65489638915141));
#675=CARTESIAN_POINT('Ctrl Pts',(-15.2,13.4645928171202,2.60293708486848));
#676=CARTESIAN_POINT('Ctrl Pts',(-15.2,13.398656417604,2.56837981216587));
#677=CARTESIAN_POINT('Ctrl Pts',(-15.2,13.2755554868274,2.4861359956216));
#678=CARTESIAN_POINT('Ctrl Pts',(-15.2,13.2183909999941,2.43844938528252));
#679=CARTESIAN_POINT('Ctrl Pts',(-15.2,13.1223863101794,2.34245316063138));
#680=CARTESIAN_POINT('Ctrl Pts',(-15.2,13.0747000726358,2.28530075810078));
#681=CARTESIAN_POINT('Ctrl Pts',(-15.2,12.9924552551822,2.1622236553346));
#682=CARTESIAN_POINT('Ctrl Pts',(-15.2,12.9578967105414,2.09629893153079));
#683=CARTESIAN_POINT('Ctrl Pts',(-15.2,12.9059436669624,1.97088212228796));
#684=CARTESIAN_POINT('Ctrl Pts',(-15.2,12.8837619404193,1.89983596306039));
#685=CARTESIAN_POINT('Ctrl Pts',(-15.2,12.8548831054582,1.75466335468586));
#686=CARTESIAN_POINT('Ctrl Pts',(-15.2,12.8481860099892,1.68053690296299));
#687=CARTESIAN_POINT('Ctrl Pts',(-15.2,12.8481860099892,1.61266350584229));
#688=CARTESIAN_POINT('Ctrl Pts',(-15.2,12.8481860099892,1.61266350584229));
#689=CARTESIAN_POINT('Ctrl Pts',(-15.2,12.8481860099892,1.5447901087216));
#690=CARTESIAN_POINT('Ctrl Pts',(-15.2,12.8548831054582,1.47066365699873));
#691=CARTESIAN_POINT('Ctrl Pts',(-15.2,12.8837619404193,1.3254910486242));
#692=CARTESIAN_POINT('Ctrl Pts',(-15.2,12.9059436669624,1.25444488939663));
#693=CARTESIAN_POINT('Ctrl Pts',(-15.2,12.9578967105414,1.12902808015379));
#694=CARTESIAN_POINT('Ctrl Pts',(-15.2,12.9924552551822,1.06310335634998));
#695=CARTESIAN_POINT('Ctrl Pts',(-15.2,13.0747000726358,0.940026253583806));
#696=CARTESIAN_POINT('Ctrl Pts',(-15.2,13.1223863101794,0.882873851053208));
#697=CARTESIAN_POINT('Ctrl Pts',(-15.2,13.2183909999941,0.786877626402063));
#698=CARTESIAN_POINT('Ctrl Pts',(-15.2,13.2755554868274,0.739191016062989));
#699=CARTESIAN_POINT('Ctrl Pts',(-15.2,13.3374407750499,0.697845412424955));
#700=CARTESIAN_POINT('Ctrl Pts',(-15.2,13.3377757199854,0.697621901358775));
#701=CARTESIAN_POINT('Ctrl Pts',(-15.2,13.3381107874761,0.697398574287294));
#702=CARTESIAN_POINT('Origin',(-13.4035619185548,14.9753722991205,1.61215977560986));
#703=CARTESIAN_POINT('Origin',(-13.4035619185548,14.9753722991205,1.61215977560986));
#704=CARTESIAN_POINT('Origin',(-13.4035619185548,14.9753722991205,1.61215977560986));
#705=CARTESIAN_POINT('Origin',(-13.4035619185548,14.9753722991205,1.61215977560986));
#706=CARTESIAN_POINT('Origin',(-13.4035619185548,14.9753722991205,1.61215977560986));
#707=CARTESIAN_POINT('Origin',(-13.4035619185548,14.9753722991205,1.61215977560986));
#708=CARTESIAN_POINT('Origin',(-13.4035619185548,14.9753722991205,1.61215977560986));
#709=CARTESIAN_POINT('Origin',(-13.4035619185548,14.9753722991205,1.61215977560986));
#710=CARTESIAN_POINT('Origin',(-12.8736426543216,15.8234203952769,1.61215977560986));
#711=CARTESIAN_POINT('',(-13.1348275208224,17.1658052168979,2.19507096626639));
#712=CARTESIAN_POINT('Origin',(-12.3437233900884,16.6714684914334,1.61215977560986));
#713=CARTESIAN_POINT('Origin',(-12.8736426543216,15.8234203952769,1.61215977560986));
#714=CARTESIAN_POINT('',(-11.4087821446755,16.0872523613389,0.923264732106694));
#715=CARTESIAN_POINT('Origin',(-12.3437233900884,16.6714684914334,1.61215977560986));
#716=CARTESIAN_POINT('Origin',(-12.3437233900884,16.6714684914334,1.61215977560986));
#717=CARTESIAN_POINT('Origin',(-15.2,13.9491125683742,1.61209897537019));
#718=CARTESIAN_POINT('Origin',(-15.2,13.9491125683742,1.61209897537019));
#719=CARTESIAN_POINT('Origin',(-16.7,13.9491125683742,1.61209897537019));
#720=CARTESIAN_POINT('',(-16.7,13.9491125683742,2.71209897537019));
#721=CARTESIAN_POINT('Origin',(-16.7,13.9491125683742,1.61209897537019));
#722=CARTESIAN_POINT('Origin',(-16.7,13.9491125683742,1.61209897537019));
#723=CARTESIAN_POINT('',(-16.7,13.9491125683742,2.98709897537019));
#724=CARTESIAN_POINT('Origin',(-16.7,13.9491125683742,1.61209897537019));
#725=CARTESIAN_POINT('Origin',(-16.7,13.9491125683742,1.61209897537019));
#726=UNCERTAINTY_MEASURE_WITH_UNIT(LENGTH_MEASURE(0.001),#728,
'DISTANCE_ACCURACY_VALUE',
'Maximum model space distance between geometric entities at asserted c
onnectivities');
#727=(
GEOMETRIC_REPRESENTATION_CONTEXT(3)
GLOBAL_UNCERTAINTY_ASSIGNED_CONTEXT((#726))
GLOBAL_UNIT_ASSIGNED_CONTEXT((#728,#730,#729))
REPRESENTATION_CONTEXT('','3D')
);
#728=(
LENGTH_UNIT()
NAMED_UNIT(*)
SI_UNIT(.CENTI.,.METRE.)
);
#729=(
NAMED_UNIT(*)
SI_UNIT($,.STERADIAN.)
SOLID_ANGLE_UNIT()
);
#730=(
NAMED_UNIT(*)
PLANE_ANGLE_UNIT()
SI_UNIT($,.RADIAN.)
);
#731=SHAPE_DEFINITION_REPRESENTATION(#732,#733);
#732=PRODUCT_DEFINITION_SHAPE('',$,#735);
#733=SHAPE_REPRESENTATION('',(#241),#727);
#734=PRODUCT_DEFINITION_CONTEXT('3D Mechanical Parts',#738,'design');
#735=PRODUCT_DEFINITION('cono hospital','cono hospital',#736,#734);
#736=PRODUCT_DEFINITION_FORMATION('',$,#740);
#737=APPLICATION_PROTOCOL_DEFINITION('international standard',
'automotive_design',2009,#738);
#738=APPLICATION_CONTEXT(
'Core Data for Automotive Mechanical Design Process');
#739=PRODUCT_CONTEXT('3D Mechanical Parts',#738,'mechanical');
#740=PRODUCT('cono hospital','cono hospital',$,(#739));
#741=PRESENTATION_STYLE_ASSIGNMENT((#742));
#742=SURFACE_STYLE_USAGE(.BOTH.,#743);
#743=SURFACE_SIDE_STYLE($,(#744));
#744=SURFACE_STYLE_FILL_AREA(#745);
#745=FILL_AREA_STYLE($,(#746));
#746=FILL_AREA_STYLE_COLOUR($,#747);
#747=COLOUR_RGB('__RGBA_0.322_0.702_0.937',0.32156862745098,0.701960784313725,
0.937254901960784);
ENDSEC;
END-ISO-10303-21;
